/* XPM */
static char *_7367ea5f3b6489faa7473bd6d8e0538[] = {
/* columns rows colors chars-per-pixel */
"200 100 38 1 ",
"  c black",
". c #010000",
"X c #000100",
"o c #030000",
"O c #000200",
"+ c #000300",
"@ c #030200",
"# c #010002",
"$ c #030002",
"% c #050300",
"& c #060200",
"* c #050102",
"= c #030004",
"- c #020005",
"; c #2D0000",
": c #2E0000",
"> c #95090C",
", c #97080C",
"< c #DF1200",
"1 c #DF141A",
"2 c #EF0303",
"3 c #F50103",
"4 c #FE0000",
"5 c #FE0200",
"6 c #FE0201",
"7 c #FE0002",
"8 c #FF0004",
"9 c #FC0204",
"0 c #DB5500",
"q c #FFBA2C",
"w c #FFCB00",
"e c #FFCA01",
"r c #FDCD00",
"t c #FFCC01",
"y c #FFCC03",
"u c #F9CE05",
"i c #FBCD06",
"p c #FFC70C",
/* pixels */
"                                                                                                                                                                                                        ",
"                                                                                                                                                                                                        ",
"                                                                                                                                                                                                        ",
"                                                                                                                                                                                                        ",
"                                                                                                                                                                                                        ",
"                                                                                                                                                                                                        ",
"                                                                                                                                                                                                        ",
"                                                                                                                                                                                                        ",
"                                                                                                                                                                                                        ",
"                                                                                                                                                                                                        ",
"                                                                                                                                                                                                        ",
"                                                                                                                                                                                                        ",
"                                                                                                                                                                                                        ",
"                                                                                                                                                                                                        ",
"                                                                                                                                                                                                        ",
"    =   =  $  =   =  $  =  $  $   =  $  =  $  $ =  $  =  $  =  $ $  =  $  =  $    =  $  =  $  = =  $  =  $  =  $ $  =  $  =  $  =  $  =  $  =     =  $  =  $  =   =  $  =  $  $   =  $  =  $  = =  $  = ",
"=$=$===$= =$=$=$===$=$=$=$=$= ===$=$=$= ===$=====$=$===$= =$=$=$===$= ===$=$=$= ===$= ===$=$=$= =$=====$=$=$===$===$=$=$=$= ===$=$=$=$= ===$=$=$=$=$===$= =$=$=$=====$=$=$=$=$= ===$= ===$=$=$= =$=====$",
" = =  $ == = =  = =  $ == =  == $  == = = =   $  = =  $ == = =  = =  ==  $ == = = =  ==  $ == =  =  $  $ = =  $ = = $  == = = =  $ == = = = $  = = =  $ == = =   $ = ==  $ == = = =  ==  $ == =  =  $  $",
"+  ++  ++++ +++  +  ++++ + ++  +++++ + ++  ++ +++  ++  ++++ +++ + + ++++ + +++++++++ ++  + +++++ +++ ++++  ++  + ++ ++++ + ++  ++ +++ + ++++ + + +++ ++++  ++  +++++ ++  + +++++++++ ++  + ++++++++ +++ ",
"++++++++ +++ +++++++ +++++++++++ +++++++++++++ +++++++++ +++ +++++++ + +++++ + + + +++++++++ + +++ +++++++++++++++++ +++++++++++++ +++++ + +++++++ +++++++++++++ + +++++++++ + + + +++++++++ + + +++ +++",
"  + +  + +    +   +  +   +     + +   +     +  +   + +  + +    + +  + +  +  +  +   +   + +  +  +    + +    + +  +  +  +   +     +  + +  + +  +  +   + +    + +  +  +   + +  +  +   +   + +  +  +  +    + ",
"   $  $   $    $   $$    $    $   $ $        $$    $  $   $    $  $    $$    $    $    $$    $   $  $      $  $   $    $$  $    $    $    $    $   $  $   $    $$  $    $    $    $    $$    $   $  $   ",
"$$$$$$$$$$$$$$$$$$$$$$$$$$$$$$$$$$$$$$$$$$$$$$$$$$$$$$$$$$$$$$$$$$$$$$$$$$$$$$$$$$$$$$$$$$$$$$$$$$$$$$$$$$$$$$$$$$$$$$$$$$$$$$$$$$$$$$$$$$$$$$$$$$$$$$$$$$$$$$$$$$$$$$$$$$$$$$$$$$$$$$$$$$$$$$$$$$$$$$$$",
"$$$$$$$$$$$$$$$=$$$$$$$$$$$$$$$$$$$$$$$=$$$$$$$$$$$$$$$$$$$$$$$=$$$$$$$$$$$$$$ =$$$$$$$$$$$$$$ =$$$$$$$$$$$$$$$=$$$$$$$$$$$$$$$$$$$$$$$=$$$$$$$$$$$$$$$$$$$$$$$$$$$$$$$$$$$$$$ =$$$$$$$$$$$$$$ =$$$$$$$$",
"$======-=====-==========$=====--=====-==========$======-=====-==$===============$===============$======-================$=======================$===============$===============$===============$=======",
"$%$$%+=$$$%%= =%=%=+$%$$$%$$%%= $$%%= =%=%=+$%$$$%$$%+=$$$%%= =%$%=+$%$%=+=+$%$%%%= $%$%=+=+$%$%$%$$%+=$$%$%=+$$=%= =%$%$+&$=%=+$%$%=+$$=%= =%$%$%$%=%=+&$=%=+$$%%= $%$%=+=+$%$%%%= $%$%=+=+$%$%$%$%=%=+",
"%%%%%%%%%%$%%%%%%%%%%%%%%%%%%%%%%%$%%%%%%%%%%%%%%%%%%%%%%%$ %%%%&%%%$%%%%%%%$%%%%%%%$%%%%%%%$%%%%%&%%%%%$%%%%%%%%%%%%%$%%%%%&%%%$%%%%%%%%%%%%%$%%%$%%%%%%%$ %%&%%%%%$%%%%%%%$%%%%%%%$%%%%%%%$%%%%%%%$%%%",
":::::::::::::::::::::::::::::::::::::::::::::::::::::::::::;:::::::::::::::::::::::::::::::::::::::::::::::::::::::::::::::::::::::::::::::::::::::::::::::;::::::::::::::::::::::::::::::::::::::::::::",
",>,>,>,>,>,>,>,>>>,>,>,>,>,>,>,>,>,>,>,>>>,>,>,>,>,>,>,>,>,>,>,>,,,>,>,>,,,>,>,>,>,>,>,>,,,>,>,>,>,>,>,>,>,>,>,>>>,>,>,>,>,>,>,>,>,>,>,>>>,>,>,>,>,>,>,>,>,>,>,>,>,>,>,>,,,>,>,>,>,>,>,>,,,>,>,>,>,>,>,>",
"11111111111111111111111111111111111111111111111111111111111111111111111111111111111111111111111111111111111111111111111111111111111111111111111111111111111111111111111111111111111111111111111111111111",
"22222222222222222222222222222222222222222222222222222222222222222222222222222222222222222222222222222222222222222222222222222222222222222222222222222222222222222222222222222222222222222222222222222222",
"66666666666666666666666666666666666666666666666666666666666666666666666666666666666666666666666666666666666666666666666666666666666666666666666666666666666666666666666666666666666666666666666666666666",
"66666666668966666666666666666666666686666666666696666686666686666966666666666666666669666666666666666666666666966666966666666966666666966666966666866666666666896666666666666669666666666666666666666666",
"66666668666666666889666668666668668666668698666686666666668666666866686666866666666968666986668666866866668666866666866666866866668666866666866666666686666866666686666686666668698666868668866666666668",
"66688966666898666686686966688966689666689666668686696686689666686668686689668689866866686686896668666668968686666968866988968666968686666968866966866896896666688966868966966666668689669666669666688966",
"88666686896666686696666886696686666698666686698666688696666698666666699866698666866866668666666966688866866696686866666866669686866696686866666886966666668689666669866698866886686666696666988688666686",
"66666896696868669668666666666896896866666686668966666698896866668896666666689668966886666966668886669668668686666689666698866686668686666689666666668666866666666668966866866896666666886689666666666896",
"68696686686666988666698898696686666698696696866669868666666698696666698668698666666666896866666696866666869696866866668666666686869696866866668688669668668988666869866666866866898666668666986868696686",
"66888666666666668669686666888666666666888668986668666686666666886968686686668669868966686686896666968689666666966668889666666896666666966668889696896668666896898666866968966686666689669866666666888666",
"86669668686988666668666666669668688966668666666868669866688966666866686696866668666698666986668666866666698866868966666686986666698866868966666666668669986666669686666866666696669866866668866986669668",
"86696666686688966686668986696666666698869686666689668666666698866689668668696666686688966896689688969668696666666698686666666689668896866666669866898966889696686666866666668968866666686686666866666698",
"66688866696666668696686666688866886666666666898666668698886666666866668666686686696666666866668666668666686698688666666998698666666666666988866686666666666686666686966869866666869868698696686669888666",
"68669689686969686666666868669689968966666686666668989666968966666668689696868896686969686686866669688669668666666686896866889866896666866866668698666898696886698896666868666666966686666666666868666686",
"69866666666868666988896669866666666686988696669866666686666686988966666686666666666868666696966868666668698686699866666866666668668686966666986666686666686666686666866966866889668696866988896666669866",
"68669668666666688966696868669668668966666698889666666686668966666666866666868666696866669668666666896666689666686686896669686866866666668666668666689686668966668669696686666666988666868966696886666686",
"66988666698868696666686666988666866669868666666698686696866669868866966886969686686668988666698868666686668686686686666668666698668988669668869686686666686666866668686666898866666666866666686696688696",
"66668669686686666898666666668669986668666686696866668668986668669689666866666696666666668669686666688896866669666896689866666666666896896668666669666686666888966866668666689689666668966898666666686666",
"88666668666696866666686988666668666868669866686686698666666868666666866969886686686988666668666689666666966868666666666668698866986666668669698868668696896666666986698698666666869866666666686986696986",
"96866666966866666896686668696666666896686666896866666689668666896689896686666668866666689668686969686686988666668666668896866666966866666689896686696666669868666866668666896686686966668666668866666689",
"66668986866698696686669866686686866866666986666698698666869668668666666686986869668986686666666868666696666669889668666666668986866698698666666666688866866666696698869668666686666866869668666698698666",
"66866666866966888666666696868896696686896866666666889866666666689866689896668666666869668689968666668668666668666668896666866666866966889866689868669689668689686666666666686896968688966668896666889866",
"86966698666866669668886686666666686666666866688966666668698889666668666666869686986668666666866668698666869866668669668686966698666866666668666669866666986666688866698889666666866666668669668666666668",
"66988896666666988666966866868666686666666869686669686866896669686668968698866686689698866866866666668666696668696666689666988896666666986668968668669668668689669686686666668666668686666666689669686866",
"86666666698686669686666686969686666989866668666968666698666668668668666666666686686666666966869889866689686666689869668686666666698686668668666666988666668666666666696688669668869696869869668668666698",
"66866968686666866696868966666696896866669686896866666666689866666966668666666896668666666869966666666668668696866688866666866968686666866966668666668669689668986686686996896668666666966688866666666666",
"98666866686698666686666669886686666866988666666868698866666668696866869686986666669686986668668666989866698686666666966898666866686698666866869688666668666666668696666866668669698866866666966868698866",
"66868666686666868896966869666666666868966689896666666666866666886698686666666689686966666686866986666668896686666666988666666666896686666666988696866666668896866666669868966866668896866666669866666666",
"66866689669886966666866668669868686968668666666689866986966866668666666998698666666866866696666886986869666686988866666666868986666686988866666666668986666666666988866666866698666666666988866689866986",
"68966668666666666968866966866666866666869866689866666866666889666686896866889866968688968668686696668666689896669689666688966666689896669689666666866666896666866866668686666666896666866866668666666866",
"66669866886669886866666869868669968666966668666666986866866966869866666866666668866666668666698666869686666666866666869866666698666666866666869886966698668686966666986696688866668686966666986666986866",
"89686666968668666689666668966668666689686668968686666689666668966686896669686866668686669668689698866686666666866689666666988896666666866689666666988896866666668666668686669668866666668666668686666689",
"66669869666669666866668666868668668666668668666686986866986966866686666668666698869696866666686666666686986866968666698686666666986866968666698686666666668988669668869696866666668988669668869686986866",
"66666688668668696668889686666966889666666966668696666668668886666896689866666666666666968689668666666896666686689866686666866968666686689866686666866968666896896668666666968689666896896668666696666668",
"68896666869666688966666696686866666668896866869666868966666696686666666668698866698866866666669686986666866986666668686698666866866986666668686698666866986666668669698866866666986666668669698666868966",
"88888888888888888888888888888888888888888888888888888888888888888888888888888888888888888888888888888888888888888888888888888888888888888888888888888888888888888888888888888888888888888888888888888888",
"99999999999999999999999999999999999999999999999999999999999999999999999999999999999999999999999999999999999999999999999999999999999999999999999999999999999999999999999999999999999999999999999999999999",
"33333333333333333333333333333333333333333333333333333333333333333333333333333333333333333333333333333333333333333333333333333333333333333333333333333333333333333333333333333333333333333333333333333333",
"<<<<<<<<<<<<<<<<<<<<<<<<<<<<<<<<<<<<<<<<<<<<<<<<<<<<<<<<<<<<<<<<<<<<<<<<<<<<<<<<<<<<<<<<<<<<<<<<<<<<<<<<<<<<<<<<<<<<<<<<<<<<<<<<<<<<<<<<<<<<<<<<<<<<<<<<<<<<<<<<<<<<<<<<<<<<<<<<<<<<<<<<<<<<<<<<<<<<<<<<",
"00000000000000000000000000000000000000000000000000000000000000000000000000000000000000000000000000000000000000000000000000000000000000000000000000000000000000000000000000000000000000000000000000000000",
"qqqqqqqqqqqqqqqqqqqqqqqqqqqqqqqqqqqqqqqqqqqqqqqqqqqqqqqqqqqqqqqqqqqqqqqqqqqqqqqqqqqqqqqqqqqqqqqqqqqqqqqqqqqqqqqqqqqqqqqqqqqqqqqqqqqqqqqqqqqqqqqqqqqqqqqqqqqqqqqqqqqqqqqqqqqqqqqqqqqqqqqqqqqqqqqqqqqqqqqq",
"pppppppppppppppppppppppppppppppppppppppppppppppppppppppppppppppppppppppppppppppppppppppppppppppppppppppppppppppppppppppppppppppppppppppppppppppppppppppppppppppppppppppppppppppppppppppppppppppppppppppp",
"rrrrrrrrrrrrrrrrrrrrrrrrrrrrrrrrrrrrrrrrrrrrrrrrrrrrrrrrrrrrrrrrrrrrrrrrrrrrrrrrrrrrrrrrrrrrrrrrrrrrrrrrrrrrrrrrrrrrrrrrrrrrrrrrrrrrrrrrrrrrrrrrrrrrrrrrrrrrrrrrrrrrrrrrrrrrrrrrrrrrrrrrrrrrrrrrrrrrrrrr",
"tttetetetetetetetttetetetetetetetttetetetetetetettteteteteteteteetetetetttteteteteteteteetetetetttteteteteteteteetetetetttteteteteteteteetetetetttteteteteteteteetetetetttteteteteteteteetetetettttetete",
"tteeeeeeeeeeeeeetteeeeeeeeeeeeeetteeeeeeeeeeeeeetteeeeeeeeeeeeeeeeeeeeeetteeeeeeeeeeeeeeeeeeeeeetteeeeeeeeeeeeeeeeeeeeeetteeeeeeeeeeeeeeeeeeeeeetteeeeeeeeeeeeeeeeeeeeeetteeeeeeeeeeeeeeeeeeeeeetteeeeee",
"iiiiiiiiiiiiiiiiiiiiiiiiiiiiiiiiiiiiiiiiiiiiiiiiiiiiiiiiiiiiiiiiiiiiiiiiiiiiiiiiiiiiiiiiiiiiiiiiiiiiiiiiiiiiiiiiiiiiiiiiiiiiiiiiiiiiiiiiiiiiiiiiiiiiiiiiiiiiiiiiiiiiiiiiiiiiiiiiiiiiiiiiiiiiiiiiiiiiiiii",
"iuiuiuiuiuiuiuiuiuiuiuiuiuiuiuiuiuiuiuiuiuiuiuiuiuiuiuiuiuiuiuiuiuiuiuiuiuiuiuiuiuiuiuiuiuiuiuiuiuiuiuiuiuiuiuiuiuiuiuiuiuiuiuiuiuiuiuiuiuiuiuiuiuiuiuiuiuiuiuiuiuiuiuiuiuiuiuiuiuiuiuiuiuiuiuiuiuiuiuiu",
"trtrtrtrtrtrtrtrtrtrtrtrtrtrtrtrtrtrtrtrtrtrtrtrtrtrtrtrtrtrtrtrtrtrtrtrtrtrtrtrtrtrtrtrtrtrtrtrtrtrtrtrtrtrtrtrtrtrtrtrtrtrtrtrtrtrtrtrtrtrtrtrtrtrtrtrtrtrtrtrtrtrtrtrtrtrtrtrtrtrtrtrtrtrtrtrtrtrtrtr",
"etetteetetteetetetetteetetteetetetetteetetteetetetetteetetteetetteetetteetetteetetteetetteetetteetetetetetetetetteetetteetetteetetteetetteetetteetetetetetetetetteetetteetetteetetteetetteetetteetetteet",
"tttttttttttttttttttttttttttttttttttttttttttttttttttttttttttttttttttttttttttttttttttttttttttttttttttttttttttttttttttttttttttttttttttttttttttttttttttttttttttttttttttttttttttttttttttttttttttttttttttttttt",
"ttyyyyttyyyyytyyttyyyyttyyyyytyyttyyyyttyyyyytyyttyyyyttyyyyttyyyyttyyyyttyyyyttyyyyttyyyyttyyyyttyyttyyttyyttyyyyttyyyyttyyyyttyyyyttyyyyttyyyyttyyttyyttyyttyyyyttyyyyttyyyyttyyyyttyyyyttyyyyttyyyytt",
"tttttttttttttttttttttttttttttttttttttttttttttttttttttttttttttttttttttttttttttttttttttttttttttttttttttttttttttttttttttttttttttttttttttttttttttttttttttttttttttttttttttttttttttttttttttttttttttttttttttttt",
"tttttttttttttttttttttttttttttttttttttttttttttttttttttttttttttttttttttttttttttttttttttttttttttttttttttttttttttttttttttttttttttttttttttttttttttttttttttttttttttttttttttttttttttttttttttttttttttttttttttttt",
"tttttttttttttttttttttttttttttttttttttttttttttttttttttttttttttttttttttttttttttttttttttttttttttttttttttttttttttttttttttttttttttttttttttttttttttttttttttttttttttttttttttttttttttttttttttttttttttttttttttttt",
"tttttttttttttttttttttttttttttttttttttttttttttttttttttttttttttttttttttttttttttttttttttttttttttttttttttttttttttttttttttttttttttttttttttttttttttttttttttttttttttttttttttttttttttttttttttttttttttttttttttttt",
"tttttttttttttttttttttttttttttttttttttttttttttttttttttttttttttttttttttttttttttttttttttttttttttttttttttttttttttttttttttttttttttttttttttttttttttttttttttttttttttttttttttttttttttttttttttttttttttttttttttttt",
"tttttttttttttttttttttttttttttttttttttttttttttttttttttttttttttttttttttttttttttttttttttttttttttttttttttttttttttttttttttttttttttttttttttttttttttttttttttttttttttttttttttttttttttttttttttttttttttttttttttttt",
"tttttttttttttttttttttttttttttttttttttttttttttttttttttttttttttttttttttttttttttttttttttttttttttttttttttttttttttttttttttttttttttttttttttttttttttttttttttttttttttttttttttttttttttttttttttttttttttttttttttttt",
"tttttttttttttttttttttttttttttttttttttttttttttttttttttttttttttttttttttttttttttttttttttttttttttttttttttttttttttttttttttttttttttttttttttttttttttttttttttttttttttttttttttttttttttttttttttttttttttttttttttttt",
"tttttttttttttttttttttttttttttttttttttttttttttttttttttttttttttttttttttttttttttttttttttttttttttttttttttttttttttttttttttttttttttttttttttttttttttttttttttttttttttttttttttttttttttttttttttttttttttttttttttttt",
"tttttttttttttttttttttttttttttttttttttttttttttttttttttttttttttttttttttttttttttttttttttttttttttttttttttttttttttttttttttttttttttttttttttttttttttttttttttttttttttttttttttttttttttttttttttttttttttttttttttttt",
"tttttttttttttttttttttttttttttttttttttttttttttttttttttttttttttttttttttttttttttttttttttttttttttttttttttttttttttttttttttttttttttttttttttttttttttttttttttttttttttttttttttttttttttttttttttttttttttttttttttttt",
"tttttttttttttttttttttttttttttttttttttttttttttttttttttttttttttttttttttttttttttttttttttttttttttttttttttttttttttttttttttttttttttttttttttttttttttttttttttttttttttttttttttttttttttttttttttttttttttttttttttttt",
"tttttttttttttttttttttttttttttttttttttttttttttttttttttttttttttttttttttttttttttttttttttttttttttttttttttttttttttttttttttttttttttttttttttttttttttttttttttttttttttttttttttttttttttttttttttttttttttttttttttttt",
"tttttttttttttttttttttttttttttttttttttttttttttttttttttttttttttttttttttttttttttttttttttttttttttttttttttttttttttttttttttttttttttttttttttttttttttttttttttttttttttttttttttttttttttttttttttttttttttttttttttttt",
"tttttttttttttttttttttttttttttttttttttttttttttttttttttttttttttttttttttttttttttttttttttttttttttttttttttttttttttttttttttttttttttttttttttttttttttttttttttttttttttttttttttttttttttttttttttttttttttttttttttttt",
"tttttttttttttttttttttttttttttttttttttttttttttttttttttttttttttttttttttttttttttttttttttttttttttttttttttttttttttttttttttttttttttttttttttttttttttttttttttttttttttttttttttttttttttttttttttttttttttttttttttttt",
"tttttttttttttttttttttttttttttttttttttttttttttttttttttttttttttttttttttttttttttttttttttttttttttttttttttttttttttttttttttttttttttttttttttttttttttttttttttttttttttttttttttttttttttttttttttttttttttttttttttttt",
"tttttttttttttttttttttttttttttttttttttttttttttttttttttttttttttttttttttttttttttttttttttttttttttttttttttttttttttttttttttttttttttttttttttttttttttttttttttttttttttttttttttttttttttttttttttttttttttttttttttttt",
"tttttttttttttttttttttttttttttttttttttttttttttttttttttttttttttttttttttttttttttttttttttttttttttttttttttttttttttttttttttttttttttttttttttttttttttttttttttttttttttttttttttttttttttttttttttttttttttttttttttttt",
"tttttttttttttttttttttttttttttttttttttttttttttttttttttttttttttttttttttttttttttttttttttttttttttttttttttttttttttttttttttttttttttttttttttttttttttttttttttttttttttttttttttttttttttttttttttttttttttttttttttttt"
};
