/* XPM */
static char *exit[] = {
/* columns rows colors chars-per-pixel */
"32 32 148 2",
"   c #1E1E1E",
".  c #232323",
"X  c #2B2B2C",
"o  c #2F2F30",
"O  c #353535",
"+  c #373738",
"@  c #3A3A3C",
"#  c #373C43",
"$  c #3D3F42",
"%  c #303C4E",
"&  c #3E4144",
"*  c #3E434B",
"=  c #3A4759",
"-  c #39495F",
";  c #424345",
":  c #46484B",
">  c #4A4B4D",
",  c #414750",
"<  c #474B52",
"1  c #4B4D52",
"2  c #464F5B",
"3  c #4E5052",
"4  c #46505D",
"5  c #4A505A",
"6  c #525355",
"7  c #535559",
"8  c #57585A",
"9  c #58595C",
"0  c #475467",
"q  c #4F5967",
"w  c #575A61",
"e  c #5A5D63",
"r  c #525D6D",
"t  c #4B5B72",
"y  c #455C7E",
"u  c #5E6165",
"i  c #5F646D",
"p  c #5A697E",
"a  c #616366",
"s  c #64676B",
"d  c #676869",
"f  c #636770",
"g  c #656971",
"h  c #686C72",
"j  c #666F7E",
"k  c #696F79",
"l  c #6E727B",
"z  c #70757F",
"x  c #385780",
"c  c #465F82",
"v  c #44638E",
"b  c #5C6F8A",
"n  c #5C718E",
"m  c #516E97",
"M  c #586F92",
"N  c #567199",
"B  c #5A7399",
"V  c #606E83",
"C  c #767A81",
"Z  c #7E7F82",
"A  c #637590",
"S  c #677992",
"D  c #5D78A0",
"F  c #637DA4",
"G  c #7C828E",
"H  c #7E8593",
"J  c #74849C",
"K  c #6882A7",
"L  c #6B84A9",
"P  c #6F88AD",
"I  c #7B8EAC",
"U  c #758DB1",
"Y  c #7A91B5",
"T  c #81848A",
"R  c #848992",
"E  c #8A8F96",
"W  c #838B9A",
"Q  c #898F9B",
"!  c #8E9093",
"~  c #8A919F",
"^  c #909090",
"/  c #93969B",
"(  c #999B9F",
")  c #8D95A5",
"_  c #9197A2",
"`  c #989BA2",
"'  c #929AAA",
"]  c #8196B6",
"[  c #8498B6",
"{  c #899BB5",
"}  c #8197BA",
"|  c #959FB0",
" . c #9AA0AB",
".. c #9FA5B0",
"X. c #9BA5B9",
"o. c #A2A2A3",
"O. c #A1A5AD",
"+. c #A5ABB7",
"@. c #A3ABBB",
"#. c #AEB0B2",
"$. c #A8B0BE",
"%. c #B3B6BC",
"&. c #B6B9BD",
"*. c #B8B9BC",
"=. c #95A7C2",
"-. c #9EAFCB",
";. c #A5B1C7",
":. c #ADB4C2",
">. c #A0B0C8",
",. c #AAB6CB",
"<. c #B1B8C6",
"1. c #B8BAC0",
"2. c #B6BECE",
"3. c #B0BBD2",
"4. c #B5C0D4",
"5. c #BEC5D4",
"6. c #B6C2DA",
"7. c #BAC6DE",
"8. c #BFCCE6",
"9. c #C6C9CE",
"0. c #C1C6D0",
"q. c #C5CBD7",
"w. c #C7CEDA",
"e. c #D6D8DE",
"r. c #C1CEE6",
"t. c #C6D1E6",
"y. c #CBD3E4",
"u. c #C6D1E8",
"i. c #CBD5EA",
"p. c #CED8EC",
"a. c #D3D8E2",
"s. c #DDDEE2",
"d. c #D3DBED",
"f. c #D8DEEC",
"g. c #DBE1EE",
"h. c #DCE3F1",
"j. c #E4E7EB",
"k. c #ECECED",
"l. c #E1E7F3",
"z. c #E5EAF4",
"x. c #EAEEF6",
"c. c #ECF0F6",
"v. c #EEF2F8",
"b. c #F2F3F6",
"n. c #F3F5FA",
"m. c #F6F8FB",
"M. c #FAFBFD",
"N. c None",
/* pixels */
"N.N.N.N.N.N.N.N.N.N.N.N.X o + + + O X N.N.N.N.N.N.N.N.N.N.N.N.N.",
"N.N.N.N.N.N.N.N.N.X + + a T ` O./ T s + + X N.N.N.N.N.N.N.N.N.N.",
"N.N.N.N.N.N.N.X + 8 %.x.b.n.n.v.n.x.l.f.@.e O X N.N.N.N.N.N.N.N.",
"N.N.N.N.N.N.O ; *.n.m.m.m.m.n.n.v.v.c.x.z.f.@.1 O N.N.N.N.N.N.N.",
"N.N.N.N.N.O 9 j.M.M.M.m.m.n.n.v.c.x.z.x.x.z.h.y.s O N.N.N.N.N.N.",
"N.N.N.N.O d b.M.M.M.M.m.m.v.c.z.z.h.h.f.f.f.h.h.i.z O N.N.N.N.N.",
"N.N.N.O 3 b.M.M.M.M.M.n.v.c.x.z.z.l.h.h.d.d.p.d.d.u.e O N.N.N.N.",
"N.N.N.+ s.M.M.k.m.M.m.n.v.v.x.z.z.h.h.h.h.d.p.;.i.u.7.; . N.N.N.",
"N.N.O ! M.M.M.m.^ o.b.b.v.v.c.z.z.l.h.g.g.:.7  .i.i.r.) O N.N.N.",
"N.N.@ x.M.M.M.M.( O : #.v.c.c.x.z.z.h.w.h O 7 i.i.u.u.8.: . N.N.",
"N.o T m.M.M.m.m.b.: 1 ; 8 9.x.x.l.h.E + * O :.d.i.u.u.r.H + N.N.",
"N.+ *.m.M.m.m.m.m.*.@ ;.k O G g.0.6 * A 2 g d.i.i.u.u.r.,.O N.N.",
"N.O z.m.M.b.n.n.n.b.s i -.I < ; + r [ b + 5.d.p.i.u.r.8.8.&   N.",
"N.; x.m.n.b.v.n.b.n.e.@ J ] Y p J =.F & R d.i.i.i.u.u.8.8.7 . N.",
". 6 x.n.n.x.c.v.v.c.x.( & I U P L F 0 1 d.p.p.i.u.u.r.8.8.s X N.",
". 8 x.n.x.x.x.x.c.x.x.z.7 q P K F M O :.d.d.i.i.u.r.8.8.8.k X N.",
"N.; z.n.z.z.z.z.z.z.z.a.$ V [ F D N $ R d.p.i.u.u.u.8.8.8.w . N.",
"N.+ h.v.z.z.z.z.z.z.l.u 5 -.K B N m c + 2.p.i.u.u.r.8.8.8.: . N.",
"N.O 0.c.h.h.z.h.l.l./ $ { K t @ * c v = 7 i.u.u.r.r.8.8.6.O N.N.",
"N.O ~ z.h.h.h.h.h.q.+ S n * ; O.C O - x @ ' u.r.8.8.8.8.' @ N.N.",
"N.. 6 h.h.g.h.h.h.9 : 4 O T i.d.d.:.> # % $ 8.r.8.8.8.r.i X N.N.",
"N.N.O +.d.g.d.f.| O O s 5.d.d.d.p.i.t.H + O G 8.8.8.8.;.O N.N.N.",
"N.N.. : d.d.d.y.& 9 <.d.d.d.d.i.i.i.i.u.3.f + 3.8.8.r.w X N.N.N.",
"N.N.N.O z p.d._ @.d.p.d.p.p.i.i.i.i.u.r.u.r.@.W 8.8.W + N.N.N.N.",
"N.N.N.N.O _ p.p.p.p.i.i.i.i.i.i.i.u.r.8.8.8.8.8.8.X.O N.N.N.N.N.",
"N.N.N.N.N.O ~ i.i.i.i.i.i.i.i.u.r.r.r.8.8.8.8.8.| @ . N.N.N.N.N.",
"N.N.N.N.N.N.O l r.i.u.u.t.u.u.r.r.r.8.8.8.8.8.H O . N.N.N.N.N.N.",
"N.N.N.N.N.N.N.O @ ~ r.u.r.r.r.r.8.8.8.8.8.' ; @ N.N.N.N.N.N.N.N.",
"N.N.N.N.N.N.N.N.  + + g ' ;.6.8.6.;. .j @ O . N.N.N.N.N.N.N.N.N.",
"N.N.N.N.N.N.N.N.N.N.N.X O O O O O O + o   N.N.N.N.N.N.N.N.N.N.N.",
"N.N.N.N.N.N.N.N.N.N.N.N.N.N.N.N.N.N.N.N.N.N.N.N.N.N.N.N.N.N.N.N.",
"N.N.N.N.N.N.N.N.N.N.N.N.N.N.N.N.N.N.N.N.N.N.N.N.N.N.N.N.N.N.N.N."
};
