/* XPM */
static char * sv_xpm[] = {
"32 22 366 2",
"  	c #000083",
". 	c #00007C",
"+ 	c #00006C",
"@ 	c #000069",
"# 	c #000070",
"$ 	c #00006A",
"% 	c #000060",
"& 	c #08005D",
"* 	c #0B002C",
"= 	c #230300",
"- 	c #200000",
"; 	c #19000D",
"> 	c #0D0030",
", 	c #00004F",
"' 	c #000062",
") 	c #000073",
"! 	c #0D0AB9",
"~ 	c #100AB2",
"{ 	c #140BA2",
"] 	c #150B9F",
"^ 	c #120BA9",
"/ 	c #0E0CAB",
"( 	c #0B0FA4",
"_ 	c #0D109D",
": 	c #0E048B",
"< 	c #291962",
"[ 	c #ECDEAF",
"} 	c #F6E59F",
"| 	c #EDD8D7",
"1 	c #291A53",
"2 	c #15147A",
"3 	c #060D92",
"4 	c #0D0EA6",
"5 	c #0D0DAD",
"6 	c #0007E6",
"7 	c #0007DD",
"8 	c #0008CD",
"9 	c #0107CB",
"0 	c #0006DA",
"a 	c #0008DD",
"b 	c #000AD6",
"c 	c #000AD3",
"d 	c #0000CE",
"e 	c #090D71",
"f 	c #ECFF91",
"g 	c #E9FF5C",
"h 	c #F2FDC3",
"i 	c #00042C",
"j 	c #000C8F",
"k 	c #000AC6",
"l 	c #0105D8",
"m 	c #0402DF",
"n 	c #0005FB",
"o 	c #0004F6",
"p 	c #0005EA",
"q 	c #0004EA",
"r 	c #0003F6",
"s 	c #0004FA",
"t 	c #0007F4",
"u 	c #0006F2",
"v 	c #0305FA",
"w 	c #141A94",
"x 	c #D4F26C",
"y 	c #DAFC34",
"z 	c #DAEFA4",
"A 	c #152651",
"B 	c #081CBB",
"C 	c #000EEE",
"D 	c #0001F4",
"E 	c #0100FA",
"F 	c #0300FB",
"G 	c #0105FE",
"H 	c #0404FC",
"I 	c #0802FA",
"J 	c #0702FE",
"K 	c #0304FE",
"L 	c #0005FE",
"M 	c #0000ED",
"N 	c #2119A0",
"O 	c #E3F180",
"P 	c #EDFF51",
"Q 	c #D9DEA8",
"R 	c #1D1E5F",
"S 	c #0107BD",
"T 	c #0000EC",
"U 	c #0503FE",
"V 	c #0701FF",
"W 	c #0800FF",
"X 	c #0000F5",
"Y 	c #0200F5",
"Z 	c #0600F5",
"` 	c #0600F7",
" .	c #0500F9",
"..	c #0200FA",
"+.	c #0000FA",
"@.	c #1404FF",
"#.	c #1F139D",
"$.	c #E8F081",
"%.	c #E8F649",
"&.	c #E8E7B7",
"*.	c #100C56",
"=.	c #0808C8",
"-.	c #0304FF",
";.	c #0305F8",
">.	c #0405F5",
",.	c #0804F1",
"'.	c #0A02F3",
").	c #0801FC",
"!.	c #0403FF",
"~.	c #0006FC",
"{.	c #0304FC",
"].	c #0900FC",
"^.	c #0C0587",
"/.	c #DDEC6D",
"(.	c #E7FA3C",
"_.	c #F5F9BC",
":.	c #131353",
"<.	c #0408C3",
"[.	c #0000F2",
"}.	c #0006FA",
"|.	c #0309BF",
"1.	c #0609BA",
"2.	c #0A09AF",
"3.	c #0A08B1",
"4.	c #0806C1",
"5.	c #0407C6",
"6.	c #010AC1",
"7.	c #0400BA",
"8.	c #231C6C",
"9.	c #EAF662",
"0.	c #F2FF34",
"a.	c #E1E48B",
"b.	c #17172F",
"c.	c #080F93",
"d.	c #060EC8",
"e.	c #0408BF",
"f.	c #0409BD",
"g.	c #0F1957",
"h.	c #12194F",
"i.	c #161A3D",
"j.	c #171940",
"k.	c #151657",
"l.	c #10175D",
"m.	c #0E1A54",
"n.	c #0F1A50",
"o.	c #18144F",
"p.	c #2D2614",
"q.	c #F5F643",
"r.	c #F6F720",
"s.	c #F8F073",
"t.	c #2B2700",
"u.	c #1C213F",
"v.	c #0B1256",
"w.	c #191454",
"x.	c #1D1352",
"y.	c #E2EDB1",
"z.	c #E3EEA9",
"A.	c #E9EF99",
"B.	c #E9EE9A",
"C.	c #E6ECAE",
"D.	c #E3ECB3",
"E.	c #DFF0AC",
"F.	c #E2EFA9",
"G.	c #EFF0AC",
"H.	c #EAE371",
"I.	c #FFF82A",
"J.	c #FFFE1F",
"K.	c #F0DF37",
"L.	c #F7EC76",
"M.	c #DFE59D",
"N.	c #DBE2AE",
"O.	c #EDE8B0",
"P.	c #F1E7AC",
"Q.	c #F2E6AC",
"R.	c #EDFB43",
"S.	c #EFFC3D",
"T.	c #F3FB34",
"U.	c #F4FB33",
"V.	c #F1FB3A",
"W.	c #EAFE3D",
"X.	c #EDFC3D",
"Y.	c #F3F635",
"Z.	c #FBF022",
"`.	c #FFFF18",
" +	c #FFEE03",
".+	c #FADF09",
"++	c #FFFF3D",
"@+	c #FFFF5B",
"#+	c #F5FF55",
"$+	c #F4F744",
"%+	c #F7F73F",
"&+	c #F8F63F",
"*+	c #E8F379",
"=+	c #EAF374",
"-+	c #EFF36A",
";+	c #EFF368",
">+	c #EDF36D",
",+	c #E9F471",
"'+	c #E6F672",
")+	c #E8F572",
"!+	c #FEFE7C",
"~+	c #EBDE44",
"{+	c #FFF428",
"]+	c #FFFF32",
"^+	c #FFF53E",
"/+	c #FCED52",
"(+	c #DFE464",
"_+	c #DDEA76",
":+	c #EAF279",
"<+	c #ECF276",
"[+	c #ECF278",
"}+	c #0B0E8F",
"|+	c #0E0E86",
"1+	c #121075",
"2+	c #140F73",
"3+	c #110D85",
"4+	c #0D0F8A",
"5+	c #0A1185",
"6+	c #0B1183",
"7+	c #0F057F",
"8+	c #20143C",
"9+	c #FBF77A",
"0+	c #EAE645",
"a+	c #F6EAA2",
"b+	c #130912",
"c+	c #1D1E6E",
"d+	c #131D90",
"e+	c #07118A",
"f+	c #06128A",
"g+	c #06128C",
"h+	c #0102FD",
"i+	c #0302F6",
"j+	c #0902E6",
"k+	c #0600F6",
"l+	c #0301FC",
"m+	c #0104F3",
"n+	c #0800F4",
"o+	c #1F159C",
"p+	c #D6DD7D",
"q+	c #F8FF6D",
"r+	c #E6E5C6",
"s+	c #2A2774",
"t+	c #0104B5",
"u+	c #0000E3",
"v+	c #0005F6",
"w+	c #0004FC",
"x+	c #0003FC",
"y+	c #0102FA",
"z+	c #0800F6",
"A+	c #0500FC",
"B+	c #0003FA",
"C+	c #191495",
"D+	c #ECFC82",
"E+	c #E4F83E",
"F+	c #E0E7A4",
"G+	c #0A0D42",
"H+	c #0910B8",
"I+	c #050BF3",
"J+	c #0202F8",
"K+	c #0300FD",
"L+	c #0003FB",
"M+	c #0002FB",
"N+	c #0400FB",
"O+	c #0200FE",
"P+	c #0001FE",
"Q+	c #0800F8",
"R+	c #19158E",
"S+	c #DDEF67",
"T+	c #EEFF39",
"U+	c #E7F3A1",
"V+	c #1D224A",
"W+	c #050CB2",
"X+	c #0002EA",
"Y+	c #0200F7",
"Z+	c #0500FB",
"`+	c #0001FA",
" @	c #0000F9",
".@	c #0000FC",
"+@	c #0001FC",
"@@	c #0001F5",
"#@	c #1009F5",
"$@	c #000067",
"%@	c #EDFD76",
"&@	c #F0FF3E",
"*@	c #ECF3A5",
"=@	c #0C0F3A",
"-@	c #0105AE",
";@	c #0205F0",
">@	c #0000F3",
",@	c #0000F7",
"'@	c #0007FF",
")@	c #0107FD",
"!@	c #0605F6",
"~@	c #0805F6",
"{@	c #0504FF",
"]@	c #0205FF",
"^@	c #0207F9",
"/@	c #0500E4",
"(@	c #0C0974",
"_@	c #E3EF71",
":@	c #F1FF49",
"<@	c #DBDD9C",
"[@	c #29295D",
"}@	c #090BB8",
"|@	c #0406F9",
"1@	c #0405FD",
"2@	c #0505FD",
"3@	c #0000E4",
"4@	c #0000E6",
"5@	c #0000F4",
"6@	c #0800E4",
"7@	c #1B1486",
"8@	c #E8EF87",
"9@	c #F2FC5F",
"0@	c #D9D8AC",
"a@	c #282268",
"b@	c #0C0BBE",
"c@	c #0001EF",
"d@	c #020CDF",
"e@	c #040CDB",
"f@	c #090AD4",
"g@	c #0B09D8",
"h@	c #0907E4",
"i@	c #0508E9",
"j@	c #020BE4",
"k@	c #050BDD",
"l@	c #0B03D2",
"m@	c #160F77",
"n@	c #ECF08F",
"o@	c #EDF262",
"p@	c #E6E2BF",
"q@	c #0B0448",
"r@	c #0103A6",
"s@	c #0001D8",
"t@	c #0609E2",
"u@	c #0808E4",
"v@	c #000EA9",
"w@	c #000DA7",
"x@	c #060BA3",
"y@	c #060BA7",
"z@	c #0509B2",
"A@	c #020AB3",
"B@	c #000DAE",
"C@	c #020CAB",
"D@	c #0806A9",
"E@	c #231F6B",
"F@	c #DDE079",
"G@	c #EEF164",
"H@	c #EFEAC2",
"I@	c #342D61",
"J@	c #14199B",
"K@	c #0005AA",
"L@	c #030CA7",
"M@	c #030DA3",
"N@	c #000075",
"O@	c #000077",
"P@	c #000081",
"Q@	c #00007A",
"R@	c #000078",
"S@	c #000035",
"T@	c #181B00",
"U@	c #111400",
"V@	c #0A0300",
"W@	c #000025",
"X@	c #000085",
"Y@	c #000071",
"  . + @ # # $ % & * = - ; > , ' + ) ) ) ) ) ) ) ) ) ) ) ) ) ) ) ",
"! ~ { ] ^ / ( _ : < [ } | 1 2 3 4 5 5 5 5 5 5 5 5 5 5 5 5 5 5 5 ",
"6 7 8 9 0 a b c d e f g h i j k l m m m m m m m m m m m m m m m ",
"n o p q r s t u v w x y z A B C D E F E F E F E F E F E F E F E ",
"G H I I J K L G M N O P Q R S T U V W V W V W V W V W V W V W V ",
"X Y Z `  ...+.+.@.#.$.%.&.*.=.-.+.+.+.+.+.+.+.+.+.+.+.+.+.+.+.+.",
";.>.,.'.).!.~.{.].^./.(._.:.<.[.~.}.}.}.}.}.}.}.}.}.}.}.}.}.}.}.",
"|.1.2.3.4.5.6.|.7.8.9.0.a.b.c.d.e.f.f.f.f.f.f.f.f.f.f.f.f.f.f.f.",
"g.h.i.j.k.l.m.n.o.p.q.r.s.t.u.v.w.x.x.x.x.x.x.x.x.x.x.x.x.x.x.x.",
"y.z.A.B.C.D.E.F.G.H.I.J.K.L.M.N.O.P.Q.P.Q.P.Q.P.Q.P.Q.P.Q.P.Q.P.",
"R.S.T.U.V.S.W.X.Y.Z.`. +.+++@+#+$+%+&+%+&+%+&+%+&+%+&+%+&+%+&+%+",
"*+=+-+;+>+,+'+)+!+~+{+]+^+/+(+_+:+<+[+<+[+<+[+<+[+<+[+<+[+<+[+<+",
"}+|+1+2+3+4+5+6+7+8+9+0+a+b+c+d+e+f+g+f+g+f+g+f+g+f+g+f+g+f+g+f+",
"h+i+j+j+k+l+o m+n+o+p+q+r+s+t+u+v+s w+s w+s w+s w+s w+s w+s w+s ",
"x+y+k+z+A+h+s B+[.C+D+E+F+G+H+I+J+l+K+l+K+l+K+l+K+l+K+l+K+l+K+l+",
"L+M+N+A+O+P+x+M+Q+R+S+T+U+V+W+X+Y+Z+Z+Z+Z+Z+Z+Z+Z+Z+Z+Z+Z+Z+Z+Z+",
"`+ @X Y++..@+@@@#@$@%@&@*@=@-@;@>@,@,@,@,@,@,@,@,@,@,@,@,@,@,@,@",
"'@)@!@~@{@]@'@^@/@(@_@:@<@[@}@T |@1@2@1@2@1@2@1@2@1@2@1@2@1@2@1@",
"[.M 3@4@[.,@5@M 6@7@8@9@0@a@b@c@5@,@,@,@,@,@,@,@,@,@,@,@,@,@,@,@",
"d@e@f@g@h@i@j@k@l@m@n@o@p@q@r@s@t@u@u@u@u@u@u@u@u@u@u@u@u@u@u@u@",
"v@w@x@y@z@A@B@C@D@E@F@G@H@I@J@K@L@M@M@M@M@M@M@M@M@M@M@M@M@M@M@M@",
"N@N@) O@P@P@Q@R@P@S@T@U@V@W@$@X@Y@$ $ $ $ $ $ $ $ $ $ $ $ $ $ $ "};
